{
  "basics": {
    "name": "David Beijinho",
    "label": "Software Developer Engineer",
    "image": "https://avatars.githubusercontent.com/u/2984693?v=4",
    "summary": "Software Developer Engineer with over 9 years of experience in building scalable, high-performance web applications. Proficient in modern frontend technologies such as React, Vue, and Next.js, and experienced in backend development with Node.js and microservices architecture. Recent expansion into DevOps practices, utilizing Kubernetes, Docker, and CI/CD pipelines to enhance software delivery in agile environments.",
    "website": "https://thebeijinho.com",
    "phone": "+34666022114",
    "email": "david@thebeijinho.com",
    "location": {
      "city": "Valencia",
      "countryCode": "Spain"
    },
    "profiles": [
      {
        "username": "https://linkedin.com/in/david-beijinho-20997360/",
        "url": "https://linkedin.com/in/david-beijinho-20997360/",
        "network": "LinkedIn"
      },
      {
        "username": "https://gitlab.com/davidbeijinho",
        "url": "https://gitlab.com/davidbeijinho",
        "network": "GitLab"
      },
      {
        "username": "https://github.com/davidbeijinho",
        "url": "https://github.com/davidbeijinho",
        "network": "GitHub"
      }
    ]
  },
  "work": [
    {
      "company": "LaserHub",
      "location": {
        "city": "Remote",
        "region": "Stuttgart, Germany"
      },
      "position": "Senior Software Developer",
      "url": "https://laserhub.com/",
      "startDate": "2021-06-01",
      "summary": "Implemented the MVP approach in a dynamic startup environment. Embraced the flexibility of wearing multiple hats and contributed to various aspects of the development process. Applied best practices in component development.",
      "highlights": [
        "Created a design system with Storybook",
        "Thrived in a fast-paced startup environment",
        "Improved GitLab CI pipelines, reducing workflow times by 5 minutes"
      ],
      "keywords": [
        "Vue",
        "TypeScript",
        "Node.js",
        "AWS",
        "Storybook",
        "Cypress",
        "Jest"
      ]
    },
    {
      "company": "XXXL Group",
      "location": {
        "city": "Barcelona",
        "region": "Spain"
      },
      "position": "Frontend Dev Lead",
      "url": "https://xxxlgroup.com/en/xxxlutz-group/",
      "startDate": "2019-05-02",
      "endDate": "2022-05-12",
      "summary": "Led the frontend team for Europe’s second-largest furniture retailer in the Barcelona office. Utilized React and a design system approach to build e-commerce solutions. Leveraged Google Cloud and Kubernetes with a GitOps approach for CD/CI pipelines.",
      "highlights": [
        "Led a frontend team of 8 developers",
        "Improved web performance by reducing loading time by 3 seconds",
        "Hands-on with GitOps methodology"
      ],
      "keywords": [
        "React",
        "Webpack",
        "Node.js",
        "GraphQL",
        "Kubernetes",
        "ArgoCD",
        "GitOps"
      ]
    },
    {
      "company": "Edreams",
      "location": {
        "city": "Barcelona",
        "region": "Spain"
      },
      "position": "Frontend Developer",
      "url": "https://edreams.es",
      "startDate": "2017-01-05",
      "endDate": "2019-05-08",
      "summary": "Contributed to a large-scale application serving 43 markets and around 20 million customers annually. Utilized agile methodologies and conducted A/B testing for new functionalities, specializing in mobile web and automation testing. Collaborated in a large-scale development environment with over 400 developers.",
      "highlights": [
        "Implemented A/B testing for new features, with over 50 tests running concurrently",
        "Worked in an agile environment using Kanban",
        "Developed an application with multiple brands and styles"
      ],
      "keywords": [
        "React",
        "A/B Testing",
        "Selenium",
        "Kanban",
        "Responsive Design"
      ]
    },
    {
      "company": "Private Label Campaigns",
      "location": {
        "city": "Denver",
        "region": "Colorado, US"
      },
      "position": "Developer",
      "startDate": "2015-09-05",
      "endDate": "2016-09-10",
      "summary": "Worked with high-traffic landing pages. Created an API in Node.js to track traffic and developed a Product CRM to manage the landing pages. Implemented microservices to transition from a monolithic application.",
      "keywords": [
        "Node.js",
        "REST APIs",
        "Git"
      ]
    }
  ],
  "education": [
    {
      "startDate": "2011-10-01",
      "endDate": "2013-09-01",
      "area": "Multimedia Design",
      "studyType": "Bachelor",
      "institution": "Higher School of Design",
      "location": {
        "city": "Caldas da Rainha",
        "region": "Portugal"
      }
    },
    {
      "startDate": "2008-10-01",
      "endDate": "2010-09-01",
      "area": "Computer Science",
      "studyType": "Frequency of Bachelor",
      "institution": "Higher Institute of Engineering",
      "location": {
        "city": "Coimbra",
        "region": "Portugal"
      }
    }
  ],
  "skills": [
    {
      "name": "Frontend",
      "keywords": [
        "HTML / JSX",
        "SCSS / CSS / BEM",
        "JavaScript",
        "React / Next.js",
        "Vue / Composition API"
      ]
    },
    {
      "name": "Development",
      "keywords": [
        "TypeScript",
        "Cypress",
        "GraphQL",
        "Node.js",
        "Containers / Docker"
      ]
    },
    {
      "name": "DevOps",
      "keywords": [
        "Kubernetes",
        "ArgoCD",
        "Argo Workflows",
        "GitLab/GitHub Actions",
        "GitOps",
        "Ansible"
      ]
    }
  ],
  "languages": [
    {
      "language": "English",
      "fluency": "Fluent"
    },
    {
      "language": "Spanish",
      "fluency": "Native speaker"
    },
    {
      "language": "Portuguese",
      "fluency": "Native speaker"
    }
  ]
}
